{
  "swagger": "2.0",
  "info": {
    "description": "Api Documentation",
    "version": "1.0",
    "title": "Api Documentation",
    "termsOfService": "urn:tos",
    "contact": {},
    "license": {
      "name": "Apache 2.0",
      "url": "http://www.apache.org/licenses/LICENSE-2.0"
    }
  },
  "host": "localhost:8090",
  "basePath": "/",
  "tags": [
    {
      "name": "mobile-instance-token-operations-controller",
      "description": "Mobile Instance Token Operations Controller"
    },
    {
      "name": "patient-drug-history-controller",
      "description": "Patient Drug History Controller"
    },
    {
      "name": "patient-controller",
      "description": "Patient Controller"
    },
    {
      "name": "prescription-controller",
      "description": "Prescription Controller"
    },
    {
      "name": "patient-medical-history-controller",
      "description": "Patient Medical History Controller"
    },
    {
      "name": "business-client-controller",
      "description": "Business Client Controller"
    },
    {
      "name": "drug-global-operations-controller",
      "description": "Drug Global Operations Controller"
    },
    {
      "name": "drug-crud-controller",
      "description": "Drug Crud Controller"
    }
  ],
  "paths": {
    "/businessclient/delete/{email}": {
      "delete": {
        "tags": [
          "business-client-controller"
        ],
        "summary": "deleteDrugById",
        "operationId": "deleteDrugByIdUsingDELETE",
        "consumes": [
          "application/json"
        ],
        "produces": [
          "*/*"
        ],
        "parameters": [
          {
            "name": "email",
            "in": "path",
            "description": "email",
            "required": true,
            "type": "string"
          }
        ],
        "responses": {
          "200": {
            "description": "OK"
          },
          "204": {
            "description": "No Content"
          },
          "401": {
            "description": "Unauthorized"
          },
          "403": {
            "description": "Forbidden"
          }
        }
      }
    },
    "/businessclient/find/all": {
      "get": {
        "tags": [
          "business-client-controller"
        ],
        "summary": "findAll",
        "operationId": "findAllUsingGET",
        "consumes": [
          "application/json"
        ],
        "produces": [
          "*/*"
        ],
        "responses": {
          "200": {
            "description": "OK",
            "schema": {
              "type": "array",
              "items": {
                "$ref": "#/definitions/BusinessClient"
              }
            }
          },
          "401": {
            "description": "Unauthorized"
          },
          "403": {
            "description": "Forbidden"
          },
          "404": {
            "description": "Not Found"
          }
        }
      },
      "head": {
        "tags": [
          "business-client-controller"
        ],
        "summary": "findAll",
        "operationId": "findAllUsingHEAD",
        "consumes": [
          "application/json"
        ],
        "produces": [
          "*/*"
        ],
        "responses": {
          "200": {
            "description": "OK",
            "schema": {
              "type": "array",
              "items": {
                "$ref": "#/definitions/BusinessClient"
              }
            }
          },
          "204": {
            "description": "No Content"
          },
          "401": {
            "description": "Unauthorized"
          },
          "403": {
            "description": "Forbidden"
          }
        }
      },
      "post": {
        "tags": [
          "business-client-controller"
        ],
        "summary": "findAll",
        "operationId": "findAllUsingPOST",
        "consumes": [
          "application/json"
        ],
        "produces": [
          "*/*"
        ],
        "responses": {
          "200": {
            "description": "OK",
            "schema": {
              "type": "array",
              "items": {
                "$ref": "#/definitions/BusinessClient"
              }
            }
          },
          "201": {
            "description": "Created"
          },
          "401": {
            "description": "Unauthorized"
          },
          "403": {
            "description": "Forbidden"
          },
          "404": {
            "description": "Not Found"
          }
        }
      },
      "put": {
        "tags": [
          "business-client-controller"
        ],
        "summary": "findAll",
        "operationId": "findAllUsingPUT",
        "consumes": [
          "application/json"
        ],
        "produces": [
          "*/*"
        ],
        "responses": {
          "200": {
            "description": "OK",
            "schema": {
              "type": "array",
              "items": {
                "$ref": "#/definitions/BusinessClient"
              }
            }
          },
          "201": {
            "description": "Created"
          },
          "401": {
            "description": "Unauthorized"
          },
          "403": {
            "description": "Forbidden"
          },
          "404": {
            "description": "Not Found"
          }
        }
      },
      "delete": {
        "tags": [
          "business-client-controller"
        ],
        "summary": "findAll",
        "operationId": "findAllUsingDELETE",
        "consumes": [
          "application/json"
        ],
        "produces": [
          "*/*"
        ],
        "responses": {
          "200": {
            "description": "OK",
            "schema": {
              "type": "array",
              "items": {
                "$ref": "#/definitions/BusinessClient"
              }
            }
          },
          "204": {
            "description": "No Content"
          },
          "401": {
            "description": "Unauthorized"
          },
          "403": {
            "description": "Forbidden"
          }
        }
      },
      "options": {
        "tags": [
          "business-client-controller"
        ],
        "summary": "findAll",
        "operationId": "findAllUsingOPTIONS",
        "consumes": [
          "application/json"
        ],
        "produces": [
          "*/*"
        ],
        "responses": {
          "200": {
            "description": "OK",
            "schema": {
              "type": "array",
              "items": {
                "$ref": "#/definitions/BusinessClient"
              }
            }
          },
          "204": {
            "description": "No Content"
          },
          "401": {
            "description": "Unauthorized"
          },
          "403": {
            "description": "Forbidden"
          }
        }
      },
      "patch": {
        "tags": [
          "business-client-controller"
        ],
        "summary": "findAll",
        "operationId": "findAllUsingPATCH",
        "consumes": [
          "application/json"
        ],
        "produces": [
          "*/*"
        ],
        "responses": {
          "200": {
            "description": "OK",
            "schema": {
              "type": "array",
              "items": {
                "$ref": "#/definitions/BusinessClient"
              }
            }
          },
          "204": {
            "description": "No Content"
          },
          "401": {
            "description": "Unauthorized"
          },
          "403": {
            "description": "Forbidden"
          }
        }
      }
    },
    "/businessclient/find/email/{email}": {
      "get": {
        "tags": [
          "business-client-controller"
        ],
        "summary": "findBusinessClientByEmail",
        "operationId": "findBusinessClientByEmailUsingGET",
        "consumes": [
          "application/json"
        ],
        "produces": [
          "*/*"
        ],
        "parameters": [
          {
            "name": "email",
            "in": "path",
            "description": "email",
            "required": true,
            "type": "string"
          }
        ],
        "responses": {
          "200": {
            "description": "OK",
            "schema": {
              "$ref": "#/definitions/BusinessClient"
            }
          },
          "401": {
            "description": "Unauthorized"
          },
          "403": {
            "description": "Forbidden"
          },
          "404": {
            "description": "Not Found"
          }
        }
      }
    },
    "/businessclient/upsert": {
      "post": {
        "tags": [
          "business-client-controller"
        ],
        "summary": "upsertDrug",
        "operationId": "upsertDrugUsingPOST",
        "consumes": [
          "application/json"
        ],
        "produces": [
          "*/*"
        ],
        "parameters": [
          {
            "in": "body",
            "name": "businessClient",
            "description": "businessClient",
            "required": true,
            "schema": {
              "$ref": "#/definitions/BusinessClient"
            }
          }
        ],
        "responses": {
          "200": {
            "description": "OK",
            "schema": {
              "$ref": "#/definitions/BusinessClient"
            }
          },
          "201": {
            "description": "Created"
          },
          "401": {
            "description": "Unauthorized"
          },
          "403": {
            "description": "Forbidden"
          },
          "404": {
            "description": "Not Found"
          }
        }
      }
    },
    "/drug/deactivate/{id}": {
      "get": {
        "tags": [
          "drug-global-operations-controller"
        ],
        "summary": "deactivateDrug",
        "operationId": "deactivateDrugUsingGET",
        "consumes": [
          "application/json"
        ],
        "produces": [
          "*/*"
        ],
        "parameters": [
          {
            "name": "id",
            "in": "path",
            "description": "id",
            "required": true,
            "type": "string"
          }
        ],
        "responses": {
          "200": {
            "description": "OK"
          },
          "401": {
            "description": "Unauthorized"
          },
          "403": {
            "description": "Forbidden"
          },
          "404": {
            "description": "Not Found"
          }
        }
      }
    },
    "/drug/delete/{id}": {
      "delete": {
        "tags": [
          "drug-crud-controller"
        ],
        "summary": "deleteDrugById",
        "operationId": "deleteDrugByIdUsingDELETE_1",
        "consumes": [
          "application/json"
        ],
        "produces": [
          "*/*"
        ],
        "parameters": [
          {
            "name": "id",
            "in": "path",
            "description": "id",
            "required": true,
            "type": "string"
          }
        ],
        "responses": {
          "200": {
            "description": "OK"
          },
          "204": {
            "description": "No Content"
          },
          "401": {
            "description": "Unauthorized"
          },
          "403": {
            "description": "Forbidden"
          }
        }
      }
    },
    "/drug/find/all": {
      "get": {
        "tags": [
          "drug-crud-controller"
        ],
        "summary": "findAllDrugs",
        "operationId": "findAllDrugsUsingGET",
        "consumes": [
          "application/json"
        ],
        "produces": [
          "*/*"
        ],
        "responses": {
          "200": {
            "description": "OK",
            "schema": {
              "type": "array",
              "items": {
                "$ref": "#/definitions/Drug"
              }
            }
          },
          "401": {
            "description": "Unauthorized"
          },
          "403": {
            "description": "Forbidden"
          },
          "404": {
            "description": "Not Found"
          }
        }
      },
      "head": {
        "tags": [
          "drug-crud-controller"
        ],
        "summary": "findAllDrugs",
        "operationId": "findAllDrugsUsingHEAD",
        "consumes": [
          "application/json"
        ],
        "produces": [
          "*/*"
        ],
        "responses": {
          "200": {
            "description": "OK",
            "schema": {
              "type": "array",
              "items": {
                "$ref": "#/definitions/Drug"
              }
            }
          },
          "204": {
            "description": "No Content"
          },
          "401": {
            "description": "Unauthorized"
          },
          "403": {
            "description": "Forbidden"
          }
        }
      },
      "post": {
        "tags": [
          "drug-crud-controller"
        ],
        "summary": "findAllDrugs",
        "operationId": "findAllDrugsUsingPOST",
        "consumes": [
          "application/json"
        ],
        "produces": [
          "*/*"
        ],
        "responses": {
          "200": {
            "description": "OK",
            "schema": {
              "type": "array",
              "items": {
                "$ref": "#/definitions/Drug"
              }
            }
          },
          "201": {
            "description": "Created"
          },
          "401": {
            "description": "Unauthorized"
          },
          "403": {
            "description": "Forbidden"
          },
          "404": {
            "description": "Not Found"
          }
        }
      },
      "put": {
        "tags": [
          "drug-crud-controller"
        ],
        "summary": "findAllDrugs",
        "operationId": "findAllDrugsUsingPUT",
        "consumes": [
          "application/json"
        ],
        "produces": [
          "*/*"
        ],
        "responses": {
          "200": {
            "description": "OK",
            "schema": {
              "type": "array",
              "items": {
                "$ref": "#/definitions/Drug"
              }
            }
          },
          "201": {
            "description": "Created"
          },
          "401": {
            "description": "Unauthorized"
          },
          "403": {
            "description": "Forbidden"
          },
          "404": {
            "description": "Not Found"
          }
        }
      },
      "delete": {
        "tags": [
          "drug-crud-controller"
        ],
        "summary": "findAllDrugs",
        "operationId": "findAllDrugsUsingDELETE",
        "consumes": [
          "application/json"
        ],
        "produces": [
          "*/*"
        ],
        "responses": {
          "200": {
            "description": "OK",
            "schema": {
              "type": "array",
              "items": {
                "$ref": "#/definitions/Drug"
              }
            }
          },
          "204": {
            "description": "No Content"
          },
          "401": {
            "description": "Unauthorized"
          },
          "403": {
            "description": "Forbidden"
          }
        }
      },
      "options": {
        "tags": [
          "drug-crud-controller"
        ],
        "summary": "findAllDrugs",
        "operationId": "findAllDrugsUsingOPTIONS",
        "consumes": [
          "application/json"
        ],
        "produces": [
          "*/*"
        ],
        "responses": {
          "200": {
            "description": "OK",
            "schema": {
              "type": "array",
              "items": {
                "$ref": "#/definitions/Drug"
              }
            }
          },
          "204": {
            "description": "No Content"
          },
          "401": {
            "description": "Unauthorized"
          },
          "403": {
            "description": "Forbidden"
          }
        }
      },
      "patch": {
        "tags": [
          "drug-crud-controller"
        ],
        "summary": "findAllDrugs",
        "operationId": "findAllDrugsUsingPATCH",
        "consumes": [
          "application/json"
        ],
        "produces": [
          "*/*"
        ],
        "responses": {
          "200": {
            "description": "OK",
            "schema": {
              "type": "array",
              "items": {
                "$ref": "#/definitions/Drug"
              }
            }
          },
          "204": {
            "description": "No Content"
          },
          "401": {
            "description": "Unauthorized"
          },
          "403": {
            "description": "Forbidden"
          }
        }
      }
    },
    "/drug/find/disease/{disease}": {
      "get": {
        "tags": [
          "drug-global-operations-controller"
        ],
        "summary": "getDrugsByDisease",
        "operationId": "getDrugsByDiseaseUsingGET",
        "consumes": [
          "application/json"
        ],
        "produces": [
          "*/*"
        ],
        "parameters": [
          {
            "name": "disease",
            "in": "path",
            "description": "disease",
            "required": true,
            "type": "string"
          }
        ],
        "responses": {
          "200": {
            "description": "OK",
            "schema": {
              "type": "array",
              "items": {
                "$ref": "#/definitions/Drug"
              }
            }
          },
          "401": {
            "description": "Unauthorized"
          },
          "403": {
            "description": "Forbidden"
          },
          "404": {
            "description": "Not Found"
          }
        }
      }
    },
    "/drug/find/effective-substance/{effectiveMaterial}": {
      "get": {
        "tags": [
          "drug-global-operations-controller"
        ],
        "summary": "getDrugsByEffectiveMaterial",
        "operationId": "getDrugsByEffectiveMaterialUsingGET",
        "consumes": [
          "application/json"
        ],
        "produces": [
          "*/*"
        ],
        "parameters": [
          {
            "name": "effectiveMaterial",
            "in": "path",
            "description": "effectiveMaterial",
            "required": true,
            "type": "string"
          }
        ],
        "responses": {
          "200": {
            "description": "OK",
            "schema": {
              "type": "array",
              "items": {
                "$ref": "#/definitions/Drug"
              }
            }
          },
          "401": {
            "description": "Unauthorized"
          },
          "403": {
            "description": "Forbidden"
          },
          "404": {
            "description": "Not Found"
          }
        }
      }
    },
    "/drug/find/id/{id}": {
      "get": {
        "tags": [
          "drug-crud-controller"
        ],
        "summary": "findDrugById",
        "operationId": "findDrugByIdUsingGET",
        "consumes": [
          "application/json"
        ],
        "produces": [
          "*/*"
        ],
        "parameters": [
          {
            "name": "id",
            "in": "path",
            "description": "id",
            "required": true,
            "type": "string"
          }
        ],
        "responses": {
          "200": {
            "description": "OK",
            "schema": {
              "$ref": "#/definitions/Drug"
            }
          },
          "401": {
            "description": "Unauthorized"
          },
          "403": {
            "description": "Forbidden"
          },
          "404": {
            "description": "Not Found"
          }
        }
      }
    },
    "/drug/find/name/{name}": {
      "get": {
        "tags": [
          "drug-crud-controller"
        ],
        "summary": "findDrugByName",
        "operationId": "findDrugByNameUsingGET",
        "consumes": [
          "application/json"
        ],
        "produces": [
          "*/*"
        ],
        "parameters": [
          {
            "name": "name",
            "in": "path",
            "description": "name",
            "required": true,
            "type": "string"
          }
        ],
        "responses": {
          "200": {
            "description": "OK",
            "schema": {
              "$ref": "#/definitions/Drug"
            }
          },
          "401": {
            "description": "Unauthorized"
          },
          "403": {
            "description": "Forbidden"
          },
          "404": {
            "description": "Not Found"
          }
        }
      }
    },
    "/drug/find/prefix/{prefix}": {
      "get": {
        "tags": [
          "drug-global-operations-controller"
        ],
        "summary": "getDrugsByPrefix",
        "operationId": "getDrugsByPrefixUsingGET",
        "consumes": [
          "application/json"
        ],
        "produces": [
          "*/*"
        ],
        "parameters": [
          {
            "name": "prefix",
            "in": "path",
            "description": "prefix",
            "required": true,
            "type": "string"
          }
        ],
        "responses": {
          "200": {
            "description": "OK",
            "schema": {
              "type": "array",
              "items": {
                "$ref": "#/definitions/Drug"
              }
            }
          },
          "401": {
            "description": "Unauthorized"
          },
          "403": {
            "description": "Forbidden"
          },
          "404": {
            "description": "Not Found"
          }
        }
      }
    },
    "/drug/find/symptom/{symptom}": {
      "get": {
        "tags": [
          "drug-global-operations-controller"
        ],
        "summary": "getDrugsBySymptom",
        "operationId": "getDrugsBySymptomUsingGET",
        "consumes": [
          "application/json"
        ],
        "produces": [
          "*/*"
        ],
        "parameters": [
          {
            "name": "symptom",
            "in": "path",
            "description": "symptom",
            "required": true,
            "type": "string"
          }
        ],
        "responses": {
          "200": {
            "description": "OK",
            "schema": {
              "type": "array",
              "items": {
                "$ref": "#/definitions/Drug"
              }
            }
          },
          "401": {
            "description": "Unauthorized"
          },
          "403": {
            "description": "Forbidden"
          },
          "404": {
            "description": "Not Found"
          }
        }
      }
    },
    "/drug/upsert": {
      "post": {
        "tags": [
          "drug-crud-controller"
        ],
        "summary": "upsertDrug",
        "operationId": "upsertDrugUsingPOST_1",
        "consumes": [
          "application/json"
        ],
        "produces": [
          "*/*"
        ],
        "parameters": [
          {
            "in": "body",
            "name": "drug",
            "description": "drug",
            "required": true,
            "schema": {
              "$ref": "#/definitions/Drug"
            }
          }
        ],
        "responses": {
          "200": {
            "description": "OK",
            "schema": {
              "$ref": "#/definitions/Drug"
            }
          },
          "201": {
            "description": "Created"
          },
          "401": {
            "description": "Unauthorized"
          },
          "403": {
            "description": "Forbidden"
          },
          "404": {
            "description": "Not Found"
          }
        }
      }
    },
    "/mobileInstance/token/get/nId/{nId}": {
      "get": {
        "tags": [
          "mobile-instance-token-operations-controller"
        ],
        "summary": "getInstanceIdToken",
        "operationId": "getInstanceIdTokenUsingGET",
        "consumes": [
          "application/json"
        ],
        "produces": [
          "*/*"
        ],
        "parameters": [
          {
            "name": "nId",
            "in": "path",
            "description": "nId",
            "required": true,
            "type": "string"
          }
        ],
        "responses": {
          "200": {
            "description": "OK",
            "schema": {
              "type": "string"
            }
          },
          "401": {
            "description": "Unauthorized"
          },
          "403": {
            "description": "Forbidden"
          },
          "404": {
            "description": "Not Found"
          }
        }
      }
    },
    "/mobileInstance/token/set": {
      "post": {
        "tags": [
          "mobile-instance-token-operations-controller"
        ],
        "summary": "upsertPatient",
        "operationId": "upsertPatientUsingPOST",
        "consumes": [
          "application/json"
        ],
        "produces": [
          "*/*"
        ],
        "parameters": [
          {
            "in": "body",
            "name": "mobileInstance",
            "description": "mobileInstance",
            "required": true,
            "schema": {
              "$ref": "#/definitions/MobileInstance"
            }
          }
        ],
        "responses": {
          "200": {
            "description": "OK"
          },
          "201": {
            "description": "Created"
          },
          "401": {
            "description": "Unauthorized"
          },
          "403": {
            "description": "Forbidden"
          },
          "404": {
            "description": "Not Found"
          }
        }
      }
    },
    "/patient/find/mobileNumber/{mobileNumber}": {
      "get": {
        "tags": [
          "patient-controller"
        ],
        "summary": "findUserByMobileNumber",
        "operationId": "findUserByMobileNumberUsingGET",
        "consumes": [
          "application/json"
        ],
        "produces": [
          "*/*"
        ],
        "parameters": [
          {
            "name": "mobileNumber",
            "in": "path",
            "description": "mobileNumber",
            "required": true,
            "type": "string"
          }
        ],
        "responses": {
          "200": {
            "description": "OK",
            "schema": {
              "$ref": "#/definitions/Patient"
            }
          },
          "401": {
            "description": "Unauthorized"
          },
          "403": {
            "description": "Forbidden"
          },
          "404": {
            "description": "Not Found"
          }
        }
      }
    },
    "/patient/find/nid/{NID}": {
      "get": {
        "tags": [
          "patient-controller"
        ],
        "summary": "findUserByNID",
        "operationId": "findUserByNIDUsingGET",
        "consumes": [
          "application/json"
        ],
        "produces": [
          "*/*"
        ],
        "parameters": [
          {
            "name": "NID",
            "in": "path",
            "description": "NID",
            "required": true,
            "type": "string"
          }
        ],
        "responses": {
          "200": {
            "description": "OK",
            "schema": {
              "$ref": "#/definitions/Patient"
            }
          },
          "401": {
            "description": "Unauthorized"
          },
          "403": {
            "description": "Forbidden"
          },
          "404": {
            "description": "Not Found"
          }
        }
      }
    },
    "/patient/patientMedicalHistory/find/{nID}": {
      "get": {
        "tags": [
          "patient-medical-history-controller"
        ],
        "summary": "findByNID",
        "operationId": "findByNIDUsingGET",
        "consumes": [
          "application/json"
        ],
        "produces": [
          "*/*"
        ],
        "parameters": [
          {
            "name": "nID",
            "in": "path",
            "description": "nID",
            "required": true,
            "type": "string"
          }
        ],
        "responses": {
          "200": {
            "description": "OK",
            "schema": {
              "$ref": "#/definitions/PatientMedicalHistory"
            }
          },
          "401": {
            "description": "Unauthorized"
          },
          "403": {
            "description": "Forbidden"
          },
          "404": {
            "description": "Not Found"
          }
        }
      }
    },
    "/patient/patientMedicalHistory/upsert": {
      "post": {
        "tags": [
          "patient-medical-history-controller"
        ],
        "summary": "upsert",
        "operationId": "upsertUsingPOST",
        "consumes": [
          "application/json"
        ],
        "produces": [
          "*/*"
        ],
        "parameters": [
          {
            "in": "body",
            "name": "patientMedicalHistory",
            "description": "patientMedicalHistory",
            "required": true,
            "schema": {
              "$ref": "#/definitions/PatientMedicalHistory"
            }
          }
        ],
        "responses": {
          "200": {
            "description": "OK",
            "schema": {
              "$ref": "#/definitions/PatientMedicalHistory"
            }
          },
          "201": {
            "description": "Created"
          },
          "401": {
            "description": "Unauthorized"
          },
          "403": {
            "description": "Forbidden"
          },
          "404": {
            "description": "Not Found"
          }
        }
      }
    },
    "/patient/upsert": {
      "post": {
        "tags": [
          "patient-controller"
        ],
        "summary": "upsertPatient",
        "operationId": "upsertPatientUsingPOST_1",
        "consumes": [
          "application/json"
        ],
        "produces": [
          "*/*"
        ],
        "parameters": [
          {
            "in": "body",
            "name": "patient",
            "description": "patient",
            "required": true,
            "schema": {
              "$ref": "#/definitions/Patient"
            }
          }
        ],
        "responses": {
          "200": {
            "description": "OK",
            "schema": {
              "$ref": "#/definitions/Patient"
            }
          },
          "201": {
            "description": "Created"
          },
          "401": {
            "description": "Unauthorized"
          },
          "403": {
            "description": "Forbidden"
          },
          "404": {
            "description": "Not Found"
          }
        }
      }
    },
    "/pdh/contradict/{drug1}/{drug2}": {
      "get": {
        "tags": [
          "patient-drug-history-controller"
        ],
        "summary": "doesContradict",
        "operationId": "doesContradictUsingGET",
        "consumes": [
          "application/json"
        ],
        "produces": [
          "*/*"
        ],
        "parameters": [
          {
            "name": "drug1",
            "in": "path",
            "description": "drug1",
            "required": true,
            "type": "string"
          },
          {
            "name": "drug2",
            "in": "path",
            "description": "drug2",
            "required": true,
            "type": "string"
          }
        ],
        "responses": {
          "200": {
            "description": "OK",
            "schema": {
              "type": "boolean"
            }
          },
          "401": {
            "description": "Unauthorized"
          },
          "403": {
            "description": "Forbidden"
          },
          "404": {
            "description": "Not Found"
          }
        }
      }
    },
    "/pdh/delete/{patientId}/{drugName}": {
      "delete": {
        "tags": [
          "patient-drug-history-controller"
        ],
        "summary": "deleteDrugById",
        "operationId": "deleteDrugByIdUsingDELETE_2",
        "consumes": [
          "application/json"
        ],
        "produces": [
          "*/*"
        ],
        "parameters": [
          {
            "name": "patientId",
            "in": "path",
            "description": "patientId",
            "required": true,
            "type": "string"
          },
          {
            "name": "drugName",
            "in": "path",
            "description": "drugName",
            "required": true,
            "type": "string"
          }
        ],
        "responses": {
          "200": {
            "description": "OK"
          },
          "204": {
            "description": "No Content"
          },
          "401": {
            "description": "Unauthorized"
          },
          "403": {
            "description": "Forbidden"
          }
        }
      }
    },
    "/pdh/find/{patientId}": {
      "get": {
        "tags": [
          "patient-drug-history-controller"
        ],
        "summary": "findAllDrugs",
        "operationId": "findAllDrugsUsingGET_1",
        "consumes": [
          "application/json"
        ],
        "produces": [
          "*/*"
        ],
        "parameters": [
          {
            "name": "patientId",
            "in": "path",
            "description": "patientId",
            "required": true,
            "type": "string"
          }
        ],
        "responses": {
          "200": {
            "description": "OK",
            "schema": {
              "$ref": "#/definitions/PatientDrugHistory"
            }
          },
          "401": {
            "description": "Unauthorized"
          },
          "403": {
            "description": "Forbidden"
          },
          "404": {
            "description": "Not Found"
          }
        }
      }
    },
    "/pdh/insert": {
      "post": {
        "tags": [
          "patient-drug-history-controller"
        ],
        "summary": "insertDrug",
        "operationId": "insertDrugUsingPOST",
        "consumes": [
          "application/json"
        ],
        "produces": [
          "*/*"
        ],
        "parameters": [
          {
            "in": "body",
            "name": "patientDrugHistory",
            "description": "patientDrugHistory",
            "required": true,
            "schema": {
              "$ref": "#/definitions/PatientDrugHistory"
            }
          }
        ],
        "responses": {
          "200": {
            "description": "OK",
            "schema": {
              "$ref": "#/definitions/PatientDrugHistory"
            }
          },
          "201": {
            "description": "Created"
          },
          "401": {
            "description": "Unauthorized"
          },
          "403": {
            "description": "Forbidden"
          },
          "404": {
            "description": "Not Found"
          }
        }
      }
    },
    "/prescription/addPrescription": {
      "post": {
        "tags": [
          "prescription-controller"
        ],
        "summary": "addPrescription",
        "operationId": "addPrescriptionUsingPOST",
        "consumes": [
          "application/json"
        ],
        "produces": [
          "*/*"
        ],
        "parameters": [
          {
            "in": "body",
            "name": "prescription",
            "description": "prescription",
            "required": true,
            "schema": {
              "$ref": "#/definitions/Prescription"
            }
          }
        ],
        "responses": {
          "200": {
            "description": "OK",
            "schema": {
              "$ref": "#/definitions/Prescription"
            }
          },
          "201": {
            "description": "Created"
          },
          "401": {
            "description": "Unauthorized"
          },
          "403": {
            "description": "Forbidden"
          },
          "404": {
            "description": "Not Found"
          }
        }
      }
    },
    "/prescription/findPrescription/{patient_nId}": {
      "get": {
        "tags": [
          "prescription-controller"
        ],
        "summary": "findPrescription",
        "operationId": "findPrescriptionUsingGET",
        "consumes": [
          "application/json"
        ],
        "produces": [
          "*/*"
        ],
        "parameters": [
          {
            "name": "patient_nId",
            "in": "path",
            "description": "patient_nId",
            "required": true,
            "type": "string"
          }
        ],
        "responses": {
          "200": {
            "description": "OK",
            "schema": {
              "type": "array",
              "items": {
                "$ref": "#/definitions/Prescription"
              }
            }
          },
          "401": {
            "description": "Unauthorized"
          },
          "403": {
            "description": "Forbidden"
          },
          "404": {
            "description": "Not Found"
          }
        }
      }
    }
  },
  "definitions": {
    "BusinessClient": {
      "type": "object",
      "properties": {
        "businessClientType": {
          "type": "string"
        },
        "email": {
          "type": "string"
        },
        "passwordHash": {
          "type": "string"
        },
        "userName": {
          "type": "string"
        }
      }
    },
    "Drug": {
      "type": "object",
      "properties": {
        "active": {
          "type": "boolean"
        },
        "description": {
          "type": "string"
        },
        "diseases": {
          "type": "array",
          "items": {
            "type": "string"
          }
        },
        "effectiveSubstance": {
          "type": "array",
          "items": {
            "type": "string"
          }
        },
        "id": {
          "type": "string"
        },
        "name": {
          "type": "string"
        },
        "symptoms": {
          "type": "array",
          "items": {
            "type": "string"
          }
        }
      }
    },
    "DrugHistory": {
      "type": "object",
      "properties": {
        "endDate": {
          "type": "string"
        },
        "name": {
          "type": "string"
        },
        "startDate": {
          "type": "string"
        }
      }
    },
    "MobileInstance": {
      "type": "object",
      "properties": {
        "mobileInstanceIdToken": {
          "type": "string"
        },
        "nId": {
          "type": "string"
        },
        "passwordHash": {
          "type": "string"
        }
      }
    },
    "Patient": {
      "type": "object",
      "properties": {
        "dateDay": {
          "type": "integer",
          "format": "int32"
        },
        "dateMonth": {
          "type": "integer",
          "format": "int32"
        },
        "dateYear": {
          "type": "integer",
          "format": "int32"
        },
        "email": {
          "type": "string"
        },
        "firstName": {
          "type": "string"
        },
        "gender": {
          "type": "string"
        },
        "lastName": {
          "type": "string"
        },
        "mobileNumber": {
          "type": "string"
        },
        "nId": {
          "type": "string"
        },
        "passwordHash": {
          "type": "string"
        }
      }
    },
    "PatientDrugHistory": {
      "type": "object",
      "properties": {
        "drugs": {
          "type": "array",
          "items": {
            "$ref": "#/definitions/DrugHistory"
          }
        },
        "nId": {
          "type": "string"
        }
      }
    },
    "PatientMedicalHistory": {
      "type": "object",
      "properties": {
        "alcoholic": {
          "type": "boolean"
        },
        "allergies": {
          "type": "array",
          "items": {
            "type": "string"
          }
        },
        "length": {
          "type": "integer",
          "format": "int32"
        },
        "nID": {
          "type": "string"
        },
        "pregnant": {
          "type": "boolean"
        },
        "smoker": {
          "type": "boolean"
        },
        "weight": {
          "type": "integer",
          "format": "int32"
        }
      }
    },
    "Prescription": {
      "type": "object",
      "properties": {
        "date": {
          "type": "string"
        },
        "doctor_name": {
          "type": "string"
        },
        "notes": {
          "type": "string"
        },
        "patient_nId": {
          "type": "string"
        },
        "url": {
          "type": "string"
        }
      }
    }
  }
}